Rlang and Quosures and !!! Oh My! · Batteries Not Included
…
# Actual user input values
user_input <- c("pressure", "wind")
user_input_named <- user_choices[user_choices %in% user_input]

# Grouped storms by name
grouped_storms <- storms %>% 
  group_by(name)

# Calculate the mean and max for each column provided in user_input_named
grouped_storms %>% 
  summarise_at(user_input_named, funs(my_mean = mean, max, my_fun = sum(.)/length(.)))

## # A tibble: 198 x 7
##        name wind_my_mean pressure_my_mean wind_max pressure_max
##       <chr>        <dbl>            <dbl>    <dbl>        <dbl>
##  1 AL011993     27.50000         1000.125       30         1003
##  2 AL012000     25.00000         1009.250       25         1010
##  3 AL021992     29.00000         1007.400       30         1009
##  4 AL021994     24.16667         1015.833       30         1017
##  5 AL021999     28.75000         1004.750       30         1006
##  6 AL022000     29.16667         1009.083       30         1010
##  7 AL022001     25.00000         1011.000       25         1012
##  8 AL022003     30.00000         1008.750       30         1010
##  9 AL022006     38.00000         1002.400       45         1008
## 10 AL031987     21.25000         1010.031       40         1015
## # ... with 188 more rows, and 2 more variables: wind_my_fun <dbl>,
## #   pressure_my_fun <dbl>
